<?xml version="1.0" encoding="utf-8"?>
<!-- Generator: Adobe Illustrator 24.0.3, SVG Export Plug-In . SVG Version: 6.00 Build 0)  -->
<svg version="1.1" id="Layer_1" xmlns="http://www.w3.org/2000/svg" xmlns:xlink="http://www.w3.org/1999/xlink" x="0px" y="0px"
	 viewBox="0 0 133.9 41.4" style="enable-background:new 0 0 133.9 41.4;" xml:space="preserve">
<style type="text/css">
	.st0{fill:#FFFFFF;}
</style>
<g>
	<path class="st0" d="M2.4,17.6V3.5c0-0.2-0.1-0.4-0.4-0.4H0.4C0.1,3.1,0,3,0,2.8V0.5c0-0.2,0.1-0.4,0.4-0.4h7.3
		c0.2,0,0.4,0.1,0.4,0.4v2.3C8.1,3,8,3.2,7.7,3.2H6c-0.2,0-0.4,0.1-0.4,0.4v14.1c0,0.2-0.1,0.4-0.4,0.4H2.7
		C2.5,18,2.4,17.9,2.4,17.6z"/>
	<path class="st0" d="M9.5,17.6V0.5c0-0.2,0.1-0.4,0.4-0.4h4.3c2.7,0,4.6,1.6,4.6,4.3V7c0,1.3-0.5,2.5-1.4,3.2
		c-0.1,0.1-0.2,0.2-0.2,0.5l1.4,6.9c0.1,0.4-0.1,0.5-0.3,0.5H16c-0.3,0-0.5,0-0.5-0.4l-1.1-6.1c0-0.2-0.1-0.4-0.4-0.4h-0.8
		c-0.2,0-0.4,0.1-0.4,0.4v6.1c0,0.2-0.1,0.4-0.4,0.4H9.9C9.7,18,9.5,17.9,9.5,17.6z M14.2,8.2c0.9,0,1.4-0.6,1.4-1.8V4.9
		c0-1.2-0.5-1.8-1.4-1.8h-1c-0.2,0-0.4,0.1-0.4,0.4v4.4c0,0.2,0.1,0.4,0.4,0.4h1V8.2z"/>
	<path class="st0" d="M20.4,13.9V4.3C20.4,1.6,22.3,0,25,0s4.6,1.6,4.6,4.3V14c0,2.7-1.9,4.3-4.6,4.3C22.4,18.2,20.4,16.6,20.4,13.9
		z M26.4,13.4V4.8C26.4,3.6,26,3,25.1,3s-1.4,0.6-1.4,1.8v8.6c0,1.2,0.5,1.8,1.4,1.8C26,15.2,26.4,14.5,26.4,13.4z"/>
	<path class="st0" d="M31.8,17.6V0.5c0-0.2,0.1-0.4,0.4-0.4h4.3c2.7,0,4.6,1.6,4.6,4.3v3.5c0,2.7-1.9,4.3-4.6,4.3h-1
		c-0.2,0-0.4,0.1-0.4,0.4v5.1c0,0.2-0.1,0.4-0.4,0.4h-2.5C31.9,18,31.8,17.9,31.8,17.6z M36.4,9.2c0.9,0,1.4-0.6,1.4-1.8V4.9
		c0-1.2-0.5-1.8-1.4-1.8h-1c-0.2,0-0.4,0.1-0.4,0.4v5.3c0,0.2,0.1,0.4,0.4,0.4H36.4z"/>
	<path class="st0" d="M42.6,17.6V0.5c0-0.2,0.1-0.4,0.4-0.4h2.5c0.2,0,0.4,0.1,0.4,0.4v17.1c0,0.2-0.1,0.4-0.4,0.4H43
		C42.7,18,42.6,17.9,42.6,17.6z"/>
	<path class="st0" d="M48,14V4.2C48,1.6,49.9,0,52.6,0c2.7,0,4.6,1.6,4.6,4.2v1.9c0,0.2-0.1,0.4-0.4,0.4h-2.5
		c-0.2,0-0.4-0.1-0.4-0.4V4.7C54,3.6,53.5,3,52.6,3s-1.4,0.6-1.4,1.7v8.7c0,1.1,0.5,1.7,1.4,1.7s1.4-0.6,1.4-1.7V12
		c0-0.2,0.1-0.4,0.4-0.4h2.5c0.2,0,0.4,0.1,0.4,0.4v2c0,2.6-1.9,4.2-4.6,4.2C49.9,18.2,48,16.6,48,14z"/>
	<path class="st0" d="M58,17.6l3.2-17c0.1-0.4,0.1-0.4,0.5-0.4h2.2c0.4,0,0.5,0.1,0.5,0.4l3.2,17c0,0.3-0.1,0.4-0.3,0.4H65
		c-0.2,0-0.3-0.1-0.4-0.4l-0.2-1.5c0-0.1-0.1-0.4-0.4-0.4h-2.4c-0.3,0-0.3,0.2-0.4,0.4L61,17.6c0,0.3-0.1,0.4-0.4,0.4h-2.3
		C58,18,57.9,17.9,58,17.6z M63.6,13c0.2,0,0.2-0.1,0.2-0.3L62.9,7c0-0.1-0.2-0.1-0.2,0l-0.9,5.7c0,0.2,0,0.3,0.2,0.3H63.6z"/>
	<path class="st0" d="M69.1,0.5c0-0.2,0.1-0.4,0.4-0.4H72c0.2,0,0.4,0.1,0.4,0.4v14.1c0,0.2,0.1,0.4,0.4,0.4h2.9
		c0.2,0,0.4,0.1,0.4,0.4v2.3c0,0.2-0.1,0.4-0.4,0.4h-6.1c-0.2,0-0.4-0.1-0.4-0.4V0.5H69.1z"/>
	<path class="st0" d="M81.5,17.6V0.5c0-0.2,0.1-0.4,0.4-0.4h2.3c0.3,0,0.4,0,0.5,0.3L88,9.2c0,0.1,0.2,0.1,0.2,0V0.5
		c0-0.2,0.1-0.4,0.4-0.4H91c0.2,0,0.4,0.1,0.4,0.4v17.1c0,0.2-0.1,0.3-0.4,0.3h-2.3c-0.2,0-0.4,0-0.5-0.3L84.9,9
		c0-0.1-0.2-0.1-0.2,0v8.6c0,0.2-0.1,0.4-0.4,0.4h-2.4C81.6,18,81.5,17.9,81.5,17.6z"/>
	<path class="st0" d="M93.5,13.9V4.3c0-2.7,1.9-4.3,4.6-4.3s4.6,1.6,4.6,4.3V14c0,2.7-1.9,4.3-4.6,4.3
		C95.4,18.2,93.5,16.6,93.5,13.9z M99.4,13.4V4.8C99.4,3.6,99,3,98.1,3s-1.4,0.6-1.4,1.8v8.6c0,1.2,0.5,1.8,1.4,1.8
		C99,15.2,99.4,14.5,99.4,13.4z"/>
	<path class="st0" d="M104.8,17.6V0.5c0-0.2,0.1-0.4,0.4-0.4h4.3c2.7,0,4.6,1.6,4.6,4.3V7c0,1.3-0.5,2.5-1.4,3.2
		c-0.1,0.1-0.2,0.2-0.2,0.5l1.4,6.9c0.1,0.4-0.1,0.5-0.3,0.5h-2.3c-0.3,0-0.5,0-0.5-0.4l-1.1-6.1c0-0.2-0.1-0.4-0.4-0.4h-0.8
		c-0.2,0-0.4,0.1-0.4,0.4v6.1c0,0.2-0.1,0.4-0.4,0.4h-2.5C105,18,104.8,17.9,104.8,17.6z M109.4,8.2c0.9,0,1.4-0.6,1.4-1.8V4.9
		c0-1.2-0.5-1.8-1.4-1.8h-1c-0.2,0-0.4,0.1-0.4,0.4v4.4c0,0.2,0.1,0.4,0.4,0.4h1V8.2z"/>
	<path class="st0" d="M117.1,17.6V3.5c0-0.2-0.1-0.4-0.4-0.4H115c-0.2,0-0.4-0.1-0.4-0.4V0.5c0-0.2,0.1-0.4,0.4-0.4h7.3
		c0.2,0,0.4,0.1,0.4,0.4v2.3c0,0.2-0.1,0.4-0.4,0.4h-1.7c-0.2,0-0.4,0.1-0.4,0.4v14.1c0,0.2-0.1,0.4-0.4,0.4h-2.5
		C117.3,18,117.1,17.9,117.1,17.6z"/>
	<path class="st0" d="M124.3,17.6V0.5c0-0.2,0.1-0.4,0.4-0.4h2.5c0.2,0,0.4,0.1,0.4,0.4v6.6c0,0.2,0.1,0.4,0.4,0.4h2.3
		c0.2,0,0.4-0.1,0.4-0.4V0.5c0-0.2,0.1-0.4,0.4-0.4h2.5c0.2,0,0.4,0.1,0.4,0.4v17.1c0,0.2-0.1,0.4-0.4,0.4H131
		c-0.2,0-0.4-0.1-0.4-0.4v-6.8c0-0.2-0.1-0.4-0.4-0.4h-2.3c-0.2,0-0.4,0.1-0.4,0.4v6.8c0,0.2-0.1,0.4-0.4,0.4h-2.5
		C124.5,18,124.3,17.9,124.3,17.6z"/>
	<path class="st0" d="M20.6,39.3c-0.1-0.1-0.3-0.2-0.6-0.2c-0.1,0-0.3,0-0.4,0c-2.4-0.2-4.1-1.7-4.1-4.2v-9.7c0-2.7,1.9-4.3,4.6-4.3
		s4.6,1.6,4.6,4.3v9.7c0,1.1-0.3,2-0.9,2.7c-0.2,0.2-0.1,0.4,0,0.5l1,1c0.2,0.2,0.2,0.3,0,0.5L23,41.3c-0.1,0.1-0.3,0.1-0.5,0
		L20.6,39.3z M21.5,34.3v-8.6c0-1.2-0.5-1.8-1.4-1.8s-1.4,0.6-1.4,1.8v8.6c0,1.2,0.5,1.8,1.4,1.8S21.5,35.5,21.5,34.3z"/>
	<path class="st0" d="M26.8,34.9V21.5c0-0.2,0.1-0.4,0.4-0.4h2.5c0.2,0,0.4,0.1,0.4,0.4v12.9c0,1.2,0.5,1.8,1.4,1.8s1.3-0.6,1.3-1.8
		V21.5c0-0.2,0.1-0.4,0.4-0.4h2.5c0.2,0,0.4,0.1,0.4,0.4v13.4c0,2.7-1.9,4.3-4.6,4.3C28.8,39.1,26.8,37.5,26.8,34.9z"/>
	<path class="st0" d="M38.2,38.6V21.5c0-0.2,0.1-0.4,0.4-0.4h6.1c0.2,0,0.4,0.1,0.4,0.4v2.2c0,0.2-0.1,0.4-0.4,0.4h-2.9
		c-0.2,0-0.4,0.1-0.4,0.4v3.8c0,0.2,0.1,0.4,0.4,0.4h2.9c0.2,0,0.4,0.1,0.4,0.4v2.2c0,0.2-0.1,0.4-0.4,0.4h-2.9
		c-0.2,0-0.4,0.1-0.4,0.4V36c0,0.2,0.1,0.4,0.4,0.4h2.9c0.2,0,0.4,0.1,0.4,0.4V39c0,0.2-0.1,0.4-0.4,0.4h-6.1
		C38.3,39,38.2,38.8,38.2,38.6z"/>
	<path class="st0" d="M47.2,38.6V21.5c0-0.2,0.1-0.4,0.4-0.4h6.1c0.2,0,0.4,0.1,0.4,0.4v2.2c0,0.2-0.1,0.4-0.4,0.4h-2.9
		c-0.2,0-0.4,0.1-0.4,0.4v3.8c0,0.2,0.1,0.4,0.4,0.4h2.9c0.2,0,0.4,0.1,0.4,0.4v2.2c0,0.2-0.1,0.4-0.4,0.4h-2.9
		c-0.2,0-0.4,0.1-0.4,0.4V36c0,0.2,0.1,0.4,0.4,0.4h2.9c0.2,0,0.4,0.1,0.4,0.4V39c0,0.2-0.1,0.4-0.4,0.4h-6.1
		C47.3,39,47.2,38.8,47.2,38.6z"/>
	<path class="st0" d="M56.2,38.6V21.5c0-0.2,0.1-0.4,0.4-0.4h2.3c0.3,0,0.4,0,0.5,0.3l3.3,8.7c0,0.1,0.2,0.1,0.2,0v-8.7
		c0-0.2,0.1-0.4,0.4-0.4h2.4c0.2,0,0.4,0.1,0.4,0.4v17.1c0,0.2-0.1,0.3-0.4,0.3h-2.3c-0.2,0-0.4,0-0.5-0.3L59.6,30
		c0-0.1-0.2-0.1-0.2,0v8.6c0,0.2-0.1,0.4-0.4,0.4h-2.4C56.3,39,56.2,38.8,56.2,38.6z"/>
	<path class="st0" d="M67.9,34.9v-1c0-0.2,0.1-0.4,0.4-0.4h2.5c0.2,0,0.4,0.1,0.4,0.4v0.6c0,1.1,0.5,1.7,1.4,1.7s1.4-0.6,1.4-1.6V34
		c0-1-1-1.7-2.5-2.8C70,30.1,68,28.8,68,26.3v-1c0-2.7,1.9-4.3,4.6-4.3s4.6,1.6,4.6,4.3v1c0,0.2-0.1,0.4-0.4,0.4h-2.5
		c-0.2,0-0.4-0.1-0.4-0.4v-0.5c0-1.2-0.5-1.8-1.4-1.8s-1.4,0.6-1.4,1.6v0.5c0,1,1,1.7,2.5,2.8c1.5,1.1,3.5,2.5,3.5,4.9v1
		c0,2.7-1.9,4.3-4.6,4.3C69.9,39.1,67.9,37.5,67.9,34.9z"/>
	<path class="st0" d="M79,21.5c0-0.2,0.1-0.4,0.4-0.4h2.5c0.2,0,0.4,0.1,0.4,0.4v14.1c0,0.2,0.1,0.4,0.4,0.4h2.9
		c0.2,0,0.4,0.1,0.4,0.4v2.3c0,0.2-0.1,0.4-0.4,0.4h-6.1c-0.2,0-0.4-0.1-0.4-0.4V21.5H79z"/>
	<path class="st0" d="M86.7,38.6l3.2-17c0.1-0.4,0.1-0.4,0.5-0.4h2.2c0.4,0,0.5,0.1,0.5,0.4l3.2,17c0,0.3-0.1,0.4-0.3,0.4h-2.3
		c-0.2,0-0.3-0.1-0.4-0.4l-0.2-1.5c0-0.1-0.1-0.4-0.4-0.4h-2.4c-0.3,0-0.3,0.2-0.4,0.4l-0.2,1.5c0,0.3-0.1,0.4-0.4,0.4H87
		C86.8,39,86.6,38.8,86.7,38.6z M92.3,33.9c0.2,0,0.2-0.1,0.2-0.3L91.6,28c0-0.1-0.2-0.1-0.2,0l-0.9,5.7c0,0.2,0,0.3,0.2,0.3
		L92.3,33.9L92.3,33.9z"/>
	<path class="st0" d="M97.8,38.6V21.5c0-0.2,0.1-0.4,0.4-0.4h2.3c0.3,0,0.4,0,0.5,0.3l3.3,8.7c0,0.1,0.2,0.1,0.2,0v-8.7
		c0-0.2,0.1-0.4,0.4-0.4h2.4c0.2,0,0.4,0.1,0.4,0.4v17.1c0,0.2-0.1,0.3-0.4,0.3H105c-0.2,0-0.4,0-0.5-0.3l-3.3-8.7
		c0-0.1-0.2-0.1-0.2,0v8.6c0,0.2-0.1,0.4-0.4,0.4h-2.4C97.9,39,97.8,38.8,97.8,38.6z"/>
	<path class="st0" d="M110,38.6V21.5c0-0.2,0.1-0.4,0.4-0.4h4.3c2.7,0,4.6,1.6,4.6,4.3v9.3c0,2.7-1.9,4.3-4.6,4.3h-4.3
		C110.2,39,110,38.8,110,38.6z M114.6,36c0.9,0,1.4-0.6,1.4-1.8v-8.3c0-1.2-0.5-1.8-1.4-1.8h-1c-0.2,0-0.4,0.1-0.4,0.4v11.1
		c0,0.2,0.1,0.4,0.4,0.4C113.6,36,114.6,36,114.6,36z"/>
</g>
</svg>
