{
    "key": "group_5994fb3a2b632",
    "title": "Theme",
    "fields": [
        {
            "key": "field_5994f78841d75",
            "label": "theme colour",
            "name": "theme_colour",
            "type": "select",
            "instructions": "Select a colour theme for this page.",
            "required": 0,
            "conditional_logic": 0,
            "wrapper": {
                "width": "",
                "class": "",
                "id": ""
            },
            "choices": {
                "639083": "Green",
                "CE975C": "Brown",
                "6fa0ae": "Blue"
            },
            "default_value": [],
            "allow_null": 0,
            "multiple": 0,
            "ui": 0,
            "ajax": 0,
            "return_format": "value",
            "placeholder": ""
        }
    ],
    "location": [
        [
            {
                "param": "page_template",
                "operator": "==",
                "value": "hero-experience.php"
            }
        ],
        [
            {
                "param": "page_template",
                "operator": "==",
                "value": "destination-page.php"
            }
        ],
        [
            {
                "param": "post_type",
                "operator": "==",
                "value": "post"
            }
        ],
        [
            {
                "param": "post_type",
                "operator": "==",
                "value": "event"
            }
        ],
        [
            {
                "param": "post_type",
                "operator": "==",
                "value": "post"
            }
        ],
        [
            {
                "param": "page_template",
                "operator": "==",
                "value": "things-to-do-page.php"
            }
        ],
        [
            {
                "param": "page_template",
                "operator": "==",
                "value": "parent-category-page.php"
            }
        ],
        [
            {
                "param": "page_template",
                "operator": "==",
                "value": "general.php"
            }
        ],
        [
            {
                "param": "page_template",
                "operator": "==",
                "value": "events-listing-page.php"
            }
        ],
        [
            {
                "param": "page_template",
                "operator": "==",
                "value": "destination-page-2.php"
            }
        ],
        [
            {
                "param": "page_template",
                "operator": "==",
                "value": "destination-things-to-do.php"
            }
        ],
        [
            {
                "param": "page_template",
                "operator": "==",
                "value": "events-category-page.php"
            }
        ],
        [
            {
                "param": "page_template",
                "operator": "==",
                "value": "landing-page.php"
            }
        ],
        [
            {
                "param": "post_type",
                "operator": "==",
                "value": "itinerary"
            }
        ],
        [
            {
                "param": "page_template",
                "operator": "==",
                "value": "itineraries.php"
            }
        ],
        [
            {
                "param": "page_template",
                "operator": "==",
                "value": "mountain-bike.php"
            }
        ]
    ],
    "menu_order": 0,
    "position": "side",
    "style": "default",
    "label_placement": "top",
    "instruction_placement": "label",
    "hide_on_screen": "",
    "active": 1,
    "description": "",
    "modified": 1564463512
}