{
    "key": "group_5d40dec5b05f2",
    "title": "_Related Pages",
    "fields": [
        {
            "key": "field_5d40dee3548bb",
            "label": "Related categories text",
            "name": "related_page_text",
            "type": "wysiwyg",
            "instructions": "Enter text that appears above the related pages tiles.",
            "required": 0,
            "conditional_logic": 0,
            "wrapper": {
                "width": "",
                "class": "",
                "id": ""
            },
            "default_value": "",
            "tabs": "all",
            "toolbar": "full",
            "media_upload": 1,
            "delay": 0
        },
        {
            "key": "field_5d40dee5548bc",
            "label": "Related categories",
            "name": "related_pages",
            "type": "repeater",
            "instructions": "Select pages to feature.",
            "required": 0,
            "conditional_logic": 0,
            "wrapper": {
                "width": "",
                "class": "",
                "id": ""
            },
            "collapsed": "",
            "min": 2,
            "max": 4,
            "layout": "table",
            "button_label": "",
            "sub_fields": [
                {
                    "key": "field_5d40dee5548bd",
                    "label": "tile title text",
                    "name": "tile_title_text",
                    "type": "text",
                    "instructions": "This will override the default heading shown in the tile.",
                    "required": 0,
                    "conditional_logic": 0,
                    "wrapper": {
                        "width": "",
                        "class": "",
                        "id": ""
                    },
                    "default_value": "",
                    "placeholder": "",
                    "prepend": "",
                    "append": "",
                    "maxlength": ""
                },
                {
                    "key": "field_5d40dee5548be",
                    "label": "featured page",
                    "name": "featured_page",
                    "type": "post_object",
                    "instructions": "Select a page.",
                    "required": 0,
                    "conditional_logic": 0,
                    "wrapper": {
                        "width": "",
                        "class": "",
                        "id": ""
                    },
                    "post_type": [
                        "page"
                    ],
                    "taxonomy": "",
                    "allow_null": 0,
                    "multiple": 0,
                    "return_format": "object",
                    "ui": 1
                }
            ]
        }
    ],
    "location": [
        [
            {
                "param": "page_template",
                "operator": "==",
                "value": "mountain-bike.php"
            }
        ]
    ],
    "menu_order": 0,
    "position": "normal",
    "style": "default",
    "label_placement": "top",
    "instruction_placement": "label",
    "hide_on_screen": "",
    "active": 1,
    "description": "",
    "modified": 1564532804
}