{
    "key": "group_59a7aa1467e30",
    "title": "Event listing",
    "fields": [
        {
            "key": "field_59a7aa146cc9c",
            "label": "Image content",
            "name": "image_content",
            "type": "repeater",
            "instructions": "Select up to 4 images to feature.",
            "required": 0,
            "conditional_logic": 0,
            "wrapper": {
                "width": "",
                "class": "",
                "id": ""
            },
            "collapsed": "",
            "min": 0,
            "max": 4,
            "layout": "table",
            "button_label": "Add image",
            "sub_fields": [
                {
                    "key": "field_59a7aa146e8be",
                    "label": "image",
                    "name": "image",
                    "type": "image",
                    "instructions": "Select an image",
                    "required": 0,
                    "conditional_logic": 0,
                    "wrapper": {
                        "width": "",
                        "class": "",
                        "id": ""
                    },
                    "return_format": "id",
                    "preview_size": "thumbnail",
                    "library": "all",
                    "min_width": "",
                    "min_height": "",
                    "min_size": "",
                    "max_width": "",
                    "max_height": "",
                    "max_size": "",
                    "mime_types": ""
                },
                {
                    "key": "field_59a7aa146e8ce",
                    "label": "caption",
                    "name": "caption",
                    "type": "text",
                    "instructions": "Enter a caption for this image.",
                    "required": 0,
                    "conditional_logic": 0,
                    "wrapper": {
                        "width": "",
                        "class": "",
                        "id": ""
                    },
                    "default_value": "",
                    "placeholder": "",
                    "prepend": "",
                    "append": "",
                    "maxlength": ""
                }
            ]
        },
        {
            "key": "field_59a7aa146ccc8",
            "label": "articles text",
            "name": "articles_text",
            "type": "wysiwyg",
            "instructions": "Text that appears above featured articles.",
            "required": 0,
            "conditional_logic": 0,
            "wrapper": {
                "width": "",
                "class": "",
                "id": ""
            },
            "default_value": "",
            "tabs": "all",
            "toolbar": "full",
            "media_upload": 0,
            "delay": 0
        },
        {
            "key": "field_59a7aa146ccd8",
            "label": "featured articles",
            "name": "featured_articles",
            "type": "repeater",
            "instructions": "Select 4 articles to feature.",
            "required": 0,
            "conditional_logic": 0,
            "wrapper": {
                "width": "",
                "class": "",
                "id": ""
            },
            "collapsed": "",
            "min": 0,
            "max": 0,
            "layout": "table",
            "button_label": "Add article",
            "sub_fields": [
                {
                    "key": "field_59a7aa1476c1a",
                    "label": "featured article",
                    "name": "featured_article",
                    "type": "post_object",
                    "instructions": "Select an article.",
                    "required": 0,
                    "conditional_logic": 0,
                    "wrapper": {
                        "width": "",
                        "class": "",
                        "id": ""
                    },
                    "post_type": [
                        "post"
                    ],
                    "taxonomy": [],
                    "allow_null": 0,
                    "multiple": 0,
                    "return_format": "object",
                    "ui": 1
                }
            ]
        },
        {
            "key": "field_59a7aa146ccf6",
            "label": "explore text",
            "name": "explore_text",
            "type": "wysiwyg",
            "instructions": "Enter text that will appear above the sub menu tiles.",
            "required": 0,
            "conditional_logic": 0,
            "wrapper": {
                "width": "",
                "class": "",
                "id": ""
            },
            "default_value": "",
            "tabs": "all",
            "toolbar": "full",
            "media_upload": 0,
            "delay": 0
        },
        {
            "key": "field_59a7aa146cd02",
            "label": "Events text",
            "name": "attractions_text",
            "type": "wysiwyg",
            "instructions": "Enter text that appears above the featured events. Use h2 for heading.",
            "required": 0,
            "conditional_logic": 0,
            "wrapper": {
                "width": "",
                "class": "",
                "id": ""
            },
            "default_value": "",
            "tabs": "all",
            "toolbar": "full",
            "media_upload": 1,
            "delay": 0
        },
        {
            "key": "field_59a7aa146cd14",
            "label": "events row",
            "name": "attractions_row",
            "type": "repeater",
            "instructions": "Add a row of events.",
            "required": 0,
            "conditional_logic": 0,
            "wrapper": {
                "width": "",
                "class": "",
                "id": ""
            },
            "collapsed": "",
            "min": 0,
            "max": 4,
            "layout": "table",
            "button_label": "",
            "sub_fields": [
                {
                    "key": "field_5aa1d7be825ec",
                    "label": "attraction",
                    "name": "attraction",
                    "type": "post_object",
                    "instructions": "Select an event.",
                    "required": 0,
                    "conditional_logic": 0,
                    "wrapper": {
                        "width": "",
                        "class": "",
                        "id": ""
                    },
                    "post_type": [
                        "event"
                    ],
                    "taxonomy": [],
                    "allow_null": 0,
                    "multiple": 0,
                    "return_format": "object",
                    "ui": 1
                }
            ]
        }
    ],
    "location": [
        [
            {
                "param": "page_template",
                "operator": "==",
                "value": "events-listing-page.php"
            }
        ]
    ],
    "menu_order": 0,
    "position": "acf_after_title",
    "style": "default",
    "label_placement": "left",
    "instruction_placement": "label",
    "hide_on_screen": [
        "the_content"
    ],
    "active": 1,
    "description": "",
    "modified": 1522801116
}