{
    "key": "group_59a60390b5173",
    "title": "General",
    "fields": [
        {
            "key": "field_59a603ba34b1b",
            "label": "body content",
            "name": "flexible_content",
            "type": "flexible_content",
            "instructions": "Compose your article content layouts.",
            "required": 0,
            "conditional_logic": 0,
            "wrapper": {
                "width": "",
                "class": "",
                "id": ""
            },
            "button_label": "Add Content Row",
            "min": "",
            "max": "",
            "layouts": [
                {
                    "key": "59926ed2c5c16",
                    "name": "text_and_image",
                    "label": "Text and Image",
                    "display": "row",
                    "sub_fields": [
                        {
                            "key": "field_59a603bb34b21",
                            "label": "heading",
                            "name": "heading",
                            "type": "text",
                            "instructions": "Feature heading",
                            "required": 0,
                            "conditional_logic": 0,
                            "wrapper": {
                                "width": "",
                                "class": "",
                                "id": ""
                            },
                            "default_value": "",
                            "placeholder": "",
                            "prepend": "",
                            "append": "",
                            "maxlength": ""
                        },
                        {
                            "key": "field_59a603bb34b22",
                            "label": "image direction",
                            "name": "image_direction",
                            "type": "checkbox",
                            "instructions": "Check to change image direction.",
                            "required": 0,
                            "conditional_logic": 0,
                            "wrapper": {
                                "width": "",
                                "class": "",
                                "id": ""
                            },
                            "choices": {
                                "true": "Change image direction"
                            },
                            "allow_custom": 0,
                            "save_custom": 0,
                            "default_value": [],
                            "layout": "vertical",
                            "toggle": 0,
                            "return_format": "value"
                        },
                        {
                            "key": "field_59a603bb34b23",
                            "label": "Image content",
                            "name": "image_content",
                            "type": "repeater",
                            "instructions": "Select up to 4 images to feature.",
                            "required": 0,
                            "conditional_logic": 0,
                            "wrapper": {
                                "width": "",
                                "class": "",
                                "id": ""
                            },
                            "collapsed": "",
                            "min": 0,
                            "max": 4,
                            "layout": "table",
                            "button_label": "Add image",
                            "sub_fields": [
                                {
                                    "key": "field_59a603bb34b24",
                                    "label": "image",
                                    "name": "image",
                                    "type": "image",
                                    "instructions": "Select an image",
                                    "required": 0,
                                    "conditional_logic": 0,
                                    "wrapper": {
                                        "width": "",
                                        "class": "",
                                        "id": ""
                                    },
                                    "return_format": "id",
                                    "preview_size": "thumbnail",
                                    "library": "all",
                                    "min_width": "",
                                    "min_height": "",
                                    "min_size": "",
                                    "max_width": "",
                                    "max_height": "",
                                    "max_size": "",
                                    "mime_types": ""
                                },
                                {
                                    "key": "field_59a603bb34b25",
                                    "label": "caption",
                                    "name": "caption",
                                    "type": "text",
                                    "instructions": "Enter a caption for this image.",
                                    "required": 0,
                                    "conditional_logic": 0,
                                    "wrapper": {
                                        "width": "",
                                        "class": "",
                                        "id": ""
                                    },
                                    "default_value": "",
                                    "placeholder": "",
                                    "prepend": "",
                                    "append": "",
                                    "maxlength": ""
                                }
                            ]
                        },
                        {
                            "key": "field_59a603bb34b26",
                            "label": "video",
                            "name": "video",
                            "type": "oembed",
                            "instructions": "Enter video url",
                            "required": 0,
                            "conditional_logic": 0,
                            "wrapper": {
                                "width": "",
                                "class": "",
                                "id": ""
                            },
                            "width": "",
                            "height": ""
                        },
                        {
                            "key": "field_59a603bb34b27",
                            "label": "video caption",
                            "name": "video_caption",
                            "type": "text",
                            "instructions": "Enter a caption that will display under the video.",
                            "required": 0,
                            "conditional_logic": 0,
                            "wrapper": {
                                "width": "",
                                "class": "",
                                "id": ""
                            },
                            "default_value": "",
                            "placeholder": "",
                            "prepend": "",
                            "append": "",
                            "maxlength": ""
                        },
                        {
                            "key": "field_59a603bb34b28",
                            "label": "text",
                            "name": "text",
                            "type": "wysiwyg",
                            "instructions": "Enter text.",
                            "required": 0,
                            "conditional_logic": 0,
                            "wrapper": {
                                "width": "",
                                "class": "",
                                "id": ""
                            },
                            "default_value": "",
                            "tabs": "all",
                            "toolbar": "full",
                            "media_upload": 0,
                            "delay": 0
                        },
                        {
                            "key": "field_59a603bb34b29",
                            "label": "button text",
                            "name": "button_text",
                            "type": "text",
                            "instructions": "Enter button text.",
                            "required": 0,
                            "conditional_logic": 0,
                            "wrapper": {
                                "width": "30",
                                "class": "",
                                "id": ""
                            },
                            "default_value": "",
                            "placeholder": "",
                            "prepend": "",
                            "append": "",
                            "maxlength": ""
                        },
                        {
                            "key": "field_59cada2700b2f",
                            "label": "open in new window",
                            "name": "open_in_new_window",
                            "type": "checkbox",
                            "instructions": "Check to open link in a new window.",
                            "required": 0,
                            "conditional_logic": 0,
                            "wrapper": {
                                "width": "",
                                "class": "",
                                "id": ""
                            },
                            "choices": {
                                "true: Open in new window": "true: Open in new window"
                            },
                            "allow_custom": 0,
                            "save_custom": 0,
                            "default_value": [],
                            "layout": "vertical",
                            "toggle": 0,
                            "return_format": "value"
                        },
                        {
                            "key": "field_59a603bb34b2a",
                            "label": "button url",
                            "name": "button_url",
                            "type": "text",
                            "instructions": "Enter external url",
                            "required": 0,
                            "conditional_logic": 0,
                            "wrapper": {
                                "width": "30",
                                "class": "",
                                "id": ""
                            },
                            "default_value": "",
                            "placeholder": "",
                            "prepend": "",
                            "append": "",
                            "maxlength": ""
                        },
                        {
                            "key": "field_59a603bb34b2b",
                            "label": "button link",
                            "name": "button_link",
                            "type": "page_link",
                            "instructions": "Select a page or post to link to.",
                            "required": 0,
                            "conditional_logic": 0,
                            "wrapper": {
                                "width": "30",
                                "class": "",
                                "id": ""
                            },
                            "post_type": [],
                            "taxonomy": [],
                            "allow_null": 1,
                            "allow_archives": 1,
                            "multiple": 0
                        }
                    ],
                    "min": "",
                    "max": ""
                }
            ]
        }
    ],
    "location": [
        [
            {
                "param": "page_template",
                "operator": "==",
                "value": "general.php"
            }
        ]
    ],
    "menu_order": 0,
    "position": "normal",
    "style": "default",
    "label_placement": "left",
    "instruction_placement": "label",
    "hide_on_screen": "",
    "active": 1,
    "description": "",
    "modified": 1522801151
}