{
    "key": "group_5966c7269745e",
    "title": "Home",
    "fields": [
        {
            "key": "field_596d71053f0ff",
            "label": "hero exp text",
            "name": "hero_exp_text",
            "type": "wysiwyg",
            "instructions": "Text that appears directly after the hero banner.",
            "required": 0,
            "conditional_logic": 0,
            "wrapper": {
                "width": "",
                "class": "",
                "id": ""
            },
            "default_value": "",
            "tabs": "all",
            "toolbar": "full",
            "media_upload": 0,
            "delay": 0
        },
        {
            "key": "field_5966c72ae2a65",
            "label": "articles text",
            "name": "articles_text",
            "type": "wysiwyg",
            "instructions": "Text that appears above featured articles.",
            "required": 0,
            "conditional_logic": 0,
            "wrapper": {
                "width": "",
                "class": "",
                "id": ""
            },
            "default_value": "",
            "tabs": "all",
            "toolbar": "full",
            "media_upload": 0,
            "delay": 0
        },
        {
            "key": "field_5966ca3a480f5",
            "label": "featured articles",
            "name": "featured_articles",
            "type": "repeater",
            "instructions": "Select 4 articles to feature.",
            "required": 0,
            "conditional_logic": 0,
            "wrapper": {
                "width": "",
                "class": "",
                "id": ""
            },
            "collapsed": "",
            "min": 4,
            "max": 0,
            "layout": "table",
            "button_label": "Add article",
            "sub_fields": [
                {
                    "key": "field_5966ca5c480f6",
                    "label": "featured article",
                    "name": "featured_article",
                    "type": "post_object",
                    "instructions": "Select an article.",
                    "required": 0,
                    "conditional_logic": 0,
                    "wrapper": {
                        "width": "",
                        "class": "",
                        "id": ""
                    },
                    "post_type": [
                        "post"
                    ],
                    "taxonomy": [],
                    "allow_null": 0,
                    "multiple": 0,
                    "return_format": "object",
                    "ui": 1
                }
            ]
        },
        {
            "key": "field_5966df4c6fc88",
            "label": "places image",
            "name": "places_image",
            "type": "image",
            "instructions": "Select an image for places section.",
            "required": 0,
            "conditional_logic": 0,
            "wrapper": {
                "width": "",
                "class": "",
                "id": ""
            },
            "return_format": "url",
            "preview_size": "thumbnail",
            "library": "all",
            "min_width": "",
            "min_height": "",
            "min_size": "",
            "max_width": "",
            "max_height": "",
            "max_size": "",
            "mime_types": ""
        },
        {
            "key": "field_5966df7b6fc89",
            "label": "places text",
            "name": "places_text",
            "type": "wysiwyg",
            "instructions": "Enter places text that appears below the map.",
            "required": 0,
            "conditional_logic": 0,
            "wrapper": {
                "width": "",
                "class": "",
                "id": ""
            },
            "default_value": "",
            "tabs": "all",
            "toolbar": "full",
            "media_upload": 0,
            "delay": 0
        },
        {
            "key": "field_5966f30423009",
            "label": "events text",
            "name": "events_text",
            "type": "wysiwyg",
            "instructions": "Enter text that appears above events tiles.",
            "required": 0,
            "conditional_logic": 0,
            "wrapper": {
                "width": "",
                "class": "",
                "id": ""
            },
            "default_value": "",
            "tabs": "all",
            "toolbar": "full",
            "media_upload": 0,
            "delay": 0
        },
        {
            "key": "field_596e8ed0fe984",
            "label": "looking for section bg",
            "name": "looking_for_section_bg",
            "type": "image",
            "instructions": "Select an image for the background of the \"Find what you are looking for?\" section.",
            "required": 0,
            "conditional_logic": 0,
            "wrapper": {
                "width": "",
                "class": "",
                "id": ""
            },
            "return_format": "id",
            "preview_size": "thumbnail",
            "library": "all",
            "min_width": "",
            "min_height": "",
            "min_size": "",
            "max_width": "",
            "max_height": "",
            "max_size": "",
            "mime_types": ""
        },
        {
            "key": "field_5966e9bc362de",
            "label": "looking for things to do",
            "name": "looking_for_things_to_do_items",
            "type": "repeater",
            "instructions": "Select things to do to feature",
            "required": 0,
            "conditional_logic": 0,
            "wrapper": {
                "width": "",
                "class": "",
                "id": ""
            },
            "collapsed": "",
            "min": 6,
            "max": 6,
            "layout": "table",
            "button_label": "Add a thing to do",
            "sub_fields": [
                {
                    "key": "field_5966e9f7362df",
                    "label": "thing to do",
                    "name": "thing_to_do",
                    "type": "post_object",
                    "instructions": "Select a thing to do",
                    "required": 0,
                    "conditional_logic": 0,
                    "wrapper": {
                        "width": "",
                        "class": "",
                        "id": ""
                    },
                    "post_type": [
                        "page"
                    ],
                    "taxonomy": [],
                    "allow_null": 0,
                    "multiple": 0,
                    "return_format": "object",
                    "ui": 1
                }
            ]
        },
        {
            "key": "field_5966f332561be",
            "label": "featured events",
            "name": "featured_events",
            "type": "repeater",
            "instructions": "Select event articles you want to feature.",
            "required": 0,
            "conditional_logic": 0,
            "wrapper": {
                "width": "",
                "class": "",
                "id": ""
            },
            "collapsed": "",
            "min": 0,
            "max": 5,
            "layout": "table",
            "button_label": "Add an event",
            "sub_fields": [
                {
                    "key": "field_5966f360561bf",
                    "label": "featured event",
                    "name": "featured_event",
                    "type": "post_object",
                    "instructions": "Select event article.",
                    "required": 0,
                    "conditional_logic": 0,
                    "wrapper": {
                        "width": "",
                        "class": "",
                        "id": ""
                    },
                    "post_type": [
                        "event"
                    ],
                    "taxonomy": [],
                    "allow_null": 1,
                    "multiple": 0,
                    "return_format": "object",
                    "ui": 1
                }
            ]
        },
        {
            "key": "field_5968305aaee5e",
            "label": "Banner ad",
            "name": "banner_ad",
            "type": "post_object",
            "instructions": "Select an ad to display.",
            "required": 0,
            "conditional_logic": 0,
            "wrapper": {
                "width": "",
                "class": "",
                "id": ""
            },
            "post_type": [
                "ad_unit"
            ],
            "taxonomy": [],
            "allow_null": 1,
            "multiple": 0,
            "return_format": "object",
            "ui": 1
        }
    ],
    "location": [
        [
            {
                "param": "page_template",
                "operator": "==",
                "value": "home.php"
            }
        ]
    ],
    "menu_order": 0,
    "position": "acf_after_title",
    "style": "default",
    "label_placement": "left",
    "instruction_placement": "label",
    "hide_on_screen": [
        "the_content"
    ],
    "active": 1,
    "description": "",
    "modified": 1564464171
}