{
    "key": "group_5968298f48d1e",
    "title": "Things to do",
    "fields": [
        {
            "key": "field_599f79332fdb3",
            "label": "Image content",
            "name": "image_content",
            "type": "repeater",
            "instructions": "Select up to 4 images to feature.",
            "required": 0,
            "conditional_logic": 0,
            "wrapper": {
                "width": "",
                "class": "",
                "id": ""
            },
            "collapsed": "",
            "min": 0,
            "max": 4,
            "layout": "table",
            "button_label": "Add image",
            "sub_fields": [
                {
                    "key": "field_599f79332fdb4",
                    "label": "image",
                    "name": "image",
                    "type": "image",
                    "instructions": "Select an image",
                    "required": 0,
                    "conditional_logic": 0,
                    "wrapper": {
                        "width": "",
                        "class": "",
                        "id": ""
                    },
                    "return_format": "id",
                    "preview_size": "thumbnail",
                    "library": "all",
                    "min_width": "",
                    "min_height": "",
                    "min_size": "",
                    "max_width": "",
                    "max_height": "",
                    "max_size": "",
                    "mime_types": ""
                },
                {
                    "key": "field_599f79332fdb5",
                    "label": "caption",
                    "name": "caption",
                    "type": "text",
                    "instructions": "Enter a caption for this image.",
                    "required": 0,
                    "conditional_logic": 0,
                    "wrapper": {
                        "width": "",
                        "class": "",
                        "id": ""
                    },
                    "default_value": "",
                    "placeholder": "",
                    "prepend": "",
                    "append": "",
                    "maxlength": ""
                }
            ]
        },
        {
            "key": "field_599df8f72c26d",
            "label": "articles text",
            "name": "articles_text",
            "type": "wysiwyg",
            "instructions": "Text that appears above featured articles.",
            "required": 0,
            "conditional_logic": 0,
            "wrapper": {
                "width": "",
                "class": "",
                "id": ""
            },
            "default_value": "",
            "tabs": "all",
            "toolbar": "full",
            "media_upload": 0,
            "delay": 0
        },
        {
            "key": "field_599df8f92c26e",
            "label": "featured articles",
            "name": "featured_articles",
            "type": "repeater",
            "instructions": "Select 4 articles to feature.",
            "required": 0,
            "conditional_logic": 0,
            "wrapper": {
                "width": "",
                "class": "",
                "id": ""
            },
            "collapsed": "",
            "min": 0,
            "max": 0,
            "layout": "table",
            "button_label": "Add article",
            "sub_fields": [
                {
                    "key": "field_599df8f92c26f",
                    "label": "featured article",
                    "name": "featured_article",
                    "type": "post_object",
                    "instructions": "Select an article.",
                    "required": 0,
                    "conditional_logic": 0,
                    "wrapper": {
                        "width": "",
                        "class": "",
                        "id": ""
                    },
                    "post_type": [
                        "post"
                    ],
                    "taxonomy": [],
                    "allow_null": 0,
                    "multiple": 0,
                    "return_format": "object",
                    "ui": 1
                }
            ]
        },
        {
            "key": "field_599f99f539b4a",
            "label": "explore text",
            "name": "explore_text",
            "type": "wysiwyg",
            "instructions": "Enter text that will appear above the sub menu tiles.",
            "required": 0,
            "conditional_logic": 0,
            "wrapper": {
                "width": "",
                "class": "",
                "id": ""
            },
            "default_value": "",
            "tabs": "all",
            "toolbar": "full",
            "media_upload": 0,
            "delay": 0
        },
        {
            "key": "field_599dfb03dfd4b",
            "label": "attractions text",
            "name": "attractions_text",
            "type": "wysiwyg",
            "instructions": "Enter text that appears above the featured attractions. Use h2 for heading.",
            "required": 0,
            "conditional_logic": 0,
            "wrapper": {
                "width": "",
                "class": "",
                "id": ""
            },
            "default_value": "",
            "tabs": "all",
            "toolbar": "full",
            "media_upload": 1,
            "delay": 0
        },
        {
            "key": "field_5c11d53071ae6",
            "label": "Use category",
            "name": "use_category",
            "type": "true_false",
            "instructions": "If this pages category is set as a location you can check this to use the category location in filtering products.",
            "required": 0,
            "conditional_logic": 0,
            "wrapper": {
                "width": "20",
                "class": "",
                "id": ""
            },
            "message": "",
            "default_value": 0,
            "ui": 0,
            "ui_on_text": "",
            "ui_off_text": ""
        },
        {
            "key": "field_59a4c5cfdc48e",
            "label": "products row",
            "name": "attractions_row",
            "type": "repeater",
            "instructions": "Add up to 4 products.",
            "required": 0,
            "conditional_logic": 0,
            "wrapper": {
                "width": "80",
                "class": "",
                "id": ""
            },
            "collapsed": "",
            "min": 0,
            "max": 0,
            "layout": "table",
            "button_label": "",
            "sub_fields": [
                {
                    "key": "field_59a4c63157074",
                    "label": "products",
                    "name": "attraction",
                    "type": "post_object",
                    "instructions": "Add up to 4 products",
                    "required": 0,
                    "conditional_logic": 0,
                    "wrapper": {
                        "width": "",
                        "class": "",
                        "id": ""
                    },
                    "post_type": [
                        "product"
                    ],
                    "taxonomy": [],
                    "allow_null": 0,
                    "multiple": 0,
                    "return_format": "object",
                    "ui": 1
                }
            ]
        }
    ],
    "location": [
        [
            {
                "param": "page_template",
                "operator": "==",
                "value": "things-to-do-page.php"
            }
        ]
    ],
    "menu_order": 0,
    "position": "acf_after_title",
    "style": "default",
    "label_placement": "top",
    "instruction_placement": "label",
    "hide_on_screen": [
        "the_content"
    ],
    "active": 1,
    "description": "",
    "modified": 1544675656
}