{
    "key": "group_5cd0edbbda909",
    "title": "No Translate",
    "fields": [
        {
            "key": "field_5cd0edc39d2cb",
            "label": "Prevent Translation",
            "name": "prevent_translation_of_this_page",
            "type": "true_false",
            "instructions": "Prevent localize.js from translating this page.",
            "required": 0,
            "conditional_logic": 0,
            "wrapper": {
                "width": "",
                "class": "",
                "id": ""
            },
            "message": "",
            "default_value": 0,
            "ui": 0,
            "ui_on_text": "",
            "ui_off_text": ""
        }
    ],
    "location": [
        [
            {
                "param": "page_template",
                "operator": "==",
                "value": "parent-category-page.php"
            }
        ]
    ],
    "menu_order": 0,
    "position": "side",
    "style": "default",
    "label_placement": "top",
    "instruction_placement": "label",
    "hide_on_screen": "",
    "active": 1,
    "description": "",
    "modified": 1557196279
}