<svg xmlns="http://www.w3.org/2000/svg" xmlns:xlink="http://www.w3.org/1999/xlink" viewBox="0 0 50 50" version="1.1" width="500" height="500">
<g id="surface1">
<path style=" " d="M 46.40625 0.1875 C 46.085938 0.210938 45.757813 0.277344 45.4375 0.34375 C 44.15625 0.617188 42.78125 1.210938 41.4375 1.90625 C 38.765625 3.289063 36.34375 5.039063 35.3125 6.125 L 35.28125 6.125 L 28.53125 12.84375 L 4.53125 9.59375 C 4.214844 9.558594 3.902344 9.675781 3.6875 9.90625 L 0.28125 13.40625 C 0.0507813 13.644531 -0.0507813 13.984375 0.0195313 14.308594 C 0.0898438 14.636719 0.316406 14.90625 0.625 15.03125 L 19.125 22.28125 L 9.59375 32 L 5 32 C 4.757813 32 4.523438 32.089844 4.34375 32.25 L 0.34375 35.625 C 0.046875 35.867188 -0.0859375 36.253906 0 36.625 C 0.0859375 37 0.378906 37.289063 0.75 37.375 L 10.28125 39.71875 L 12.625 49.25 C 12.710938 49.585938 12.96875 49.851563 13.296875 49.953125 C 13.628906 50.054688 13.988281 49.976563 14.25 49.75 L 17.65625 46.75 C 17.875 46.5625 18 46.289063 18 46 L 18 40.40625 L 27.8125 30.875 L 34.96875 49.375 C 35.09375 49.683594 35.363281 49.910156 35.691406 49.980469 C 36.015625 50.050781 36.355469 49.949219 36.59375 49.71875 L 40.09375 46.3125 C 40.324219 46.097656 40.441406 45.785156 40.40625 45.46875 L 37.15625 21.46875 L 43.90625 14.71875 C 44.945313 13.679688 46.707031 11.203125 48.09375 8.53125 C 48.789063 7.195313 49.382813 5.835938 49.65625 4.5625 C 49.929688 3.289063 49.933594 1.945313 49.03125 1 C 49.019531 0.988281 49.011719 0.980469 49 0.96875 C 48.527344 0.515625 47.957031 0.296875 47.34375 0.21875 C 47.039063 0.179688 46.726563 0.164063 46.40625 0.1875 Z M 46.5 2.21875 C 47.070313 2.179688 47.402344 2.296875 47.5625 2.4375 C 47.753906 2.652344 47.894531 3.191406 47.6875 4.15625 C 47.476563 5.136719 46.957031 6.386719 46.3125 7.625 C 45.023438 10.105469 43.164063 12.617188 42.5 13.28125 L 35.40625 20.40625 C 35.183594 20.613281 35.070313 20.914063 35.09375 21.21875 L 38.34375 45.25 L 36.3125 47.21875 L 29.125 28.75 C 29.007813 28.4375 28.738281 28.203125 28.414063 28.125 C 28.085938 28.050781 27.742188 28.144531 27.5 28.375 L 16.3125 39.28125 C 16.113281 39.46875 16.003906 39.726563 16 40 L 16 45.5625 L 14.15625 47.15625 L 12.0625 38.65625 C 11.972656 38.304688 11.695313 38.027344 11.34375 37.9375 L 3.125 35.90625 L 5.375 34 L 10 34 C 10.273438 33.996094 10.53125 33.886719 10.71875 33.6875 L 21.625 22.59375 C 21.855469 22.351563 21.949219 22.007813 21.875 21.679688 C 21.796875 21.355469 21.5625 21.085938 21.25 20.96875 L 2.78125 13.71875 L 4.75 11.65625 L 28.78125 14.90625 C 29.085938 14.929688 29.386719 14.816406 29.59375 14.59375 L 36.71875 7.5 C 37.296875 6.886719 39.851563 4.976563 42.34375 3.6875 C 43.589844 3.042969 44.855469 2.523438 45.84375 2.3125 C 46.085938 2.261719 46.308594 2.230469 46.5 2.21875 Z "/>
</g>
</svg>