<svg xmlns="http://www.w3.org/2000/svg" xmlns:xlink="http://www.w3.org/1999/xlink" viewBox="0 0 50 50" version="1.1" width="500" height="500">
<g id="surface1">
<path style=" " d="M 25 0 C 24.039063 0 23.429688 0.625 22.875 1.375 C 22.320313 2.125 21.773438 3.160156 21.21875 4.4375 C 20.339844 6.464844 19.386719 9.644531 18.4375 12.9375 C 18.070313 12.296875 17.6875 11.46875 17.3125 11 C 16.539063 10.03125 15.695313 9.3125 14.59375 9.3125 C 13.773438 9.3125 13.113281 9.757813 12.53125 10.34375 C 11.949219 10.929688 11.414063 11.707031 10.84375 12.6875 C 9.703125 14.648438 8.511719 17.410156 7.28125 20.875 C 4.820313 27.808594 2.238281 37.523438 0.03125 48.8125 C -0.0234375 49.101563 0.0507813 49.402344 0.238281 49.632813 C 0.425781 49.859375 0.703125 49.996094 1 50 L 16.6875 50 C 17.144531 50 17.542969 49.691406 17.65625 49.25 C 18.191406 47.207031 19.117188 44.476563 20.40625 42.34375 C 21.695313 40.210938 23.238281 38.8125 25.09375 38.8125 C 26.949219 38.8125 28.472656 40.207031 29.75 42.34375 C 31.027344 44.480469 31.941406 47.214844 32.53125 49.28125 C 32.65625 49.710938 33.050781 50.003906 33.5 50 L 49 50 C 49.300781 50.003906 49.589844 49.875 49.78125 49.644531 C 49.976563 49.414063 50.054688 49.109375 50 48.8125 C 48.394531 39.628906 46.484375 31.753906 44.6875 26.125 C 43.789063 23.3125 42.929688 21.070313 42.09375 19.46875 C 41.675781 18.667969 41.257813 18.027344 40.8125 17.53125 C 40.367188 17.035156 39.847656 16.59375 39.09375 16.59375 C 38.292969 16.59375 37.75 17.078125 37.28125 17.625 C 36.8125 18.171875 36.382813 18.863281 35.9375 19.75 C 35.425781 20.761719 34.878906 22.484375 34.34375 23.9375 C 32.925781 17.4375 31.484375 11.808594 30.125 7.84375 C 29.324219 5.515625 28.542969 3.691406 27.78125 2.375 C 27.402344 1.71875 27.050781 1.164063 26.625 0.75 C 26.199219 0.335938 25.660156 0 25 0 Z M 25.03125 2.03125 C 25.074219 2.054688 25.125 2.097656 25.21875 2.1875 C 25.4375 2.398438 25.738281 2.816406 26.0625 3.375 C 26.707031 4.492188 27.441406 6.242188 28.21875 8.5 C 29.769531 13.019531 31.480469 19.570313 33.125 27.59375 C 33.214844 28.042969 33.597656 28.375 34.058594 28.394531 C 34.515625 28.417969 34.929688 28.125 35.0625 27.6875 C 36.003906 24.667969 36.914063 22.257813 37.71875 20.65625 C 38.121094 19.855469 38.488281 19.277344 38.78125 18.9375 C 38.921875 18.777344 39 18.671875 39.0625 18.625 C 39.066406 18.628906 39.089844 18.621094 39.09375 18.625 C 39.144531 18.660156 39.222656 18.738281 39.34375 18.875 C 39.605469 19.167969 39.941406 19.695313 40.3125 20.40625 C 41.054688 21.832031 41.933594 24 42.8125 26.75 C 44.484375 31.988281 46.207031 39.433594 47.75 48 L 34.21875 48 C 33.609375 45.957031 32.769531 43.484375 31.46875 41.3125 C 30.023438 38.898438 27.941406 36.8125 25.09375 36.8125 C 22.246094 36.8125 20.148438 38.898438 18.6875 41.3125 C 17.378906 43.476563 16.546875 45.949219 15.96875 48 L 2.25 48 C 4.386719 37.335938 6.835938 28.09375 9.15625 21.5625 C 10.363281 18.167969 11.53125 15.464844 12.5625 13.6875 C 13.078125 12.796875 13.582031 12.140625 13.96875 11.75 C 14.355469 11.359375 14.589844 11.3125 14.59375 11.3125 C 14.695313 11.3125 15.148438 11.496094 15.75 12.25 C 16.351563 13.003906 17.050781 14.207031 17.78125 15.8125 C 17.957031 16.195313 18.355469 16.429688 18.773438 16.394531 C 19.195313 16.359375 19.546875 16.0625 19.65625 15.65625 C 20.847656 11.183594 22.023438 7.613281 23.0625 5.21875 C 23.582031 4.023438 24.066406 3.136719 24.46875 2.59375 C 24.769531 2.1875 25 2.070313 25.03125 2.03125 Z "/>
</g>
</svg>