<svg xmlns="http://www.w3.org/2000/svg" xmlns:xlink="http://www.w3.org/1999/xlink" viewBox="0 0 50 50" version="1.1" width="500" height="500">
<g id="surface1">
<path style=" " d="M 30.71875 0 C 30.191406 0.09375 29.832031 0.59375 29.90625 1.125 C 30.015625 1.921875 29.773438 2.714844 29.28125 3.65625 C 28.789063 4.597656 28.039063 5.664063 27.28125 6.84375 C 25.765625 9.207031 24.222656 12.21875 24.9375 16.21875 C 25.585938 19.851563 28.214844 21.558594 30.6875 21.875 C 31.925781 22.03125 33.128906 21.875 34.15625 21.59375 C 34.222656 21.574219 34.28125 21.554688 34.34375 21.53125 C 34.0625 22.839844 33.671875 24.257813 33.1875 25.78125 C 33.007813 25.777344 32.824219 25.78125 32.65625 25.78125 C 31.871094 25.785156 31.144531 26.078125 30.46875 26.53125 C 30.121094 26.761719 29.914063 27.175781 29.625 27.5 C 28.933594 27.074219 28.121094 26.832031 27.25 26.875 C 26.179688 26.929688 25.121094 27.5625 24.40625 28.59375 C 23.367188 28.460938 22.359375 28.5625 21.5625 29.0625 C 21.0625 29.375 20.648438 29.8125 20.375 30.34375 C 19.109375 29.214844 17.101563 28 13.46875 28 C 10.632813 28 9.324219 28.6875 7.90625 29.25 C 5.199219 30.324219 0.5625 32.5625 0.5625 32.5625 C 0.195313 32.6875 -0.0625 33.015625 -0.105469 33.398438 C -0.148438 33.785156 0.0351563 34.160156 0.367188 34.363281 C 0.695313 34.5625 1.113281 34.554688 1.4375 34.34375 C 1.4375 34.34375 6.109375 32.101563 8.65625 31.09375 C 10.214844 30.476563 10.921875 30 13.46875 30 C 19.085938 30 18.917969 32.527344 21.21875 33.90625 C 22.128906 34.453125 23.597656 34.878906 25.25 35.28125 C 26.902344 35.683594 28.65625 36 30 36 C 31.167969 36 32 36.222656 32.4375 36.5 C 32.875 36.777344 33 37.003906 33 37.5 C 33 38.082031 32.875 38.269531 32.4375 38.53125 C 32 38.792969 31.152344 39 30 39 L 24.1875 39 C 21.738281 39 18.28125 38.03125 18.28125 38.03125 C 17.746094 37.875 17.1875 38.183594 17.03125 38.71875 C 16.875 39.253906 17.183594 39.8125 17.71875 39.96875 C 17.71875 39.96875 21.246094 41 24.1875 41 L 30 41 C 31.351563 41 32.5 40.804688 33.4375 40.25 C 33.707031 40.089844 33.945313 39.890625 34.15625 39.65625 C 34.246094 39.625 34.328125 39.585938 34.40625 39.53125 L 43.40625 33.46875 C 44.964844 32.542969 46.046875 32.300781 46.6875 32.3125 C 47.328125 32.324219 47.546875 32.515625 47.75 32.78125 C 48.046875 33.167969 48.066406 33.386719 47.875 33.84375 C 47.683594 34.300781 47.152344 34.941406 46.1875 35.625 C 44.988281 36.476563 31.773438 45.257813 30.21875 46.15625 C 29.070313 46.820313 28.152344 47.542969 27.09375 47.84375 C 26.035156 48.144531 24.769531 48.121094 22.71875 47.125 C 21.351563 46.460938 15.5625 43.4375 13.6875 42.46875 C 12.652344 41.933594 11.800781 41.636719 10.90625 41.6875 C 10.011719 41.738281 9.230469 42.148438 8.4375 42.65625 L 5.75 44.40625 C 5.285156 44.707031 5.152344 45.332031 5.453125 45.796875 C 5.753906 46.261719 6.378906 46.394531 6.84375 46.09375 L 9.53125 44.34375 C 10.230469 43.898438 10.625 43.707031 11 43.6875 C 11.375 43.667969 11.886719 43.789063 12.78125 44.25 C 14.640625 45.210938 20.339844 48.207031 21.84375 48.9375 C 24.207031 50.085938 26.101563 50.183594 27.625 49.75 C 29.148438 49.316406 30.238281 48.445313 31.21875 47.875 C 33.300781 46.667969 45.839844 38.316406 47.34375 37.25 C 48.492188 36.4375 49.300781 35.585938 49.71875 34.59375 C 50.136719 33.601563 50.007813 32.429688 49.34375 31.5625 C 48.820313 30.878906 47.902344 30.335938 46.71875 30.3125 C 45.839844 30.296875 44.832031 30.519531 43.65625 31.0625 C 43.40625 30.082031 42.832031 29.136719 41.90625 28.46875 C 40.832031 27.695313 39.242188 27.546875 37.53125 28.0625 C 37 27.21875 36.332031 26.539063 35.5625 26.21875 C 35.425781 26.164063 35.292969 26.136719 35.15625 26.09375 C 35.71875 24.289063 36.148438 22.625 36.4375 21.0625 C 36.902344 21.265625 37.441406 21.417969 38.0625 21.4375 C 39.273438 21.472656 40.683594 20.980469 42.03125 19.71875 C 45.511719 16.457031 45.925781 6.644531 31.28125 0.09375 C 31.136719 0.0234375 30.972656 -0.0078125 30.8125 0 C 30.78125 0 30.75 0 30.71875 0 Z M 31.75 2.59375 C 44.164063 8.75 42.546875 16.507813 40.65625 18.28125 C 39.605469 19.265625 38.789063 19.457031 38.125 19.4375 C 37.589844 19.421875 37.132813 19.207031 36.75 18.96875 C 37.28125 14.332031 36.566406 10.5625 34.96875 6.5625 C 34.8125 6.132813 34.390625 5.863281 33.9375 5.90625 C 33.621094 5.933594 33.332031 6.109375 33.167969 6.378906 C 33 6.652344 32.972656 6.984375 33.09375 7.28125 C 34.664063 11.210938 35.355469 14.671875 34.75 19.1875 C 34.484375 19.351563 34.125 19.550781 33.625 19.6875 C 32.839844 19.902344 31.867188 19.992188 30.9375 19.875 C 29.074219 19.636719 27.421875 18.761719 26.90625 15.875 C 26.308594 12.523438 27.523438 10.152344 28.96875 7.90625 C 29.691406 6.78125 30.472656 5.726563 31.0625 4.59375 C 31.390625 3.964844 31.605469 3.292969 31.75 2.59375 Z M 32.65625 27.78125 C 32.847656 27.78125 33.03125 27.800781 33.21875 27.8125 C 33.503906 28.03125 33.886719 28.078125 34.21875 27.9375 C 34.417969 27.980469 34.605469 28.023438 34.78125 28.09375 C 35.375 28.339844 35.835938 28.695313 36.15625 29.53125 C 36.257813 29.785156 36.460938 29.984375 36.714844 30.082031 C 36.96875 30.183594 37.253906 30.175781 37.5 30.0625 C 39.078125 29.339844 40.03125 29.601563 40.71875 30.09375 C 41.40625 30.585938 41.8125 31.464844 41.8125 32.125 L 34.90625 36.78125 C 34.714844 35.96875 34.214844 35.261719 33.5 34.8125 C 32.582031 34.234375 31.402344 34 30 34 C 28.988281 34 27.273438 33.722656 25.71875 33.34375 C 24.164063 32.964844 22.65625 32.433594 22.25 32.1875 C 22.175781 32.144531 22.085938 32.050781 22 31.96875 C 22.007813 31.363281 22.21875 31.003906 22.625 30.75 C 23.035156 30.492188 23.71875 30.386719 24.5625 30.59375 C 25.070313 30.71875 25.585938 30.433594 25.75 29.9375 C 26.019531 29.15625 26.617188 28.914063 27.375 28.875 C 28.132813 28.835938 28.871094 29.285156 28.90625 29.34375 C 29.105469 29.652344 29.453125 29.824219 29.816406 29.800781 C 30.183594 29.773438 30.503906 29.550781 30.65625 29.21875 C 30.792969 28.894531 31.171875 28.46875 31.59375 28.1875 C 32.015625 27.90625 32.488281 27.78125 32.65625 27.78125 Z "/>
</g>
</svg>