﻿<svg xmlns="http://www.w3.org/2000/svg" xmlns:xlink="http://www.w3.org/1999/xlink" viewBox="0 0 50 50" version="1.1" width="500" height="500">
<g id="surface1">
<path style=" " d="M 13.382813 6 L 11 10.765625 L 11 11 C 11 12.644531 12.355469 14 14 14 L 14 24 L 10 24 C 6.242188 24 4.054688 18.679688 4.03125 18.625 L 3.78125 18 L 2 18 L 2 19 C 2 26.1875 5.445313 30.796875 7.167969 32.65625 C 6.582031 32.851563 5.875 33 5 33 C 4.640625 32.996094 4.304688 33.183594 4.121094 33.496094 C 3.941406 33.808594 3.941406 34.191406 4.121094 34.503906 C 4.304688 34.816406 4.640625 35.003906 5 35 C 7.40625 35 9.09375 34.023438 10 33.328125 C 10.90625 34.023438 12.59375 35 15 35 C 17.40625 35 19.09375 34.023438 20 33.328125 C 20.90625 34.023438 22.59375 35 25 35 C 27.40625 35 29.09375 34.023438 30 33.328125 C 30.90625 34.023438 32.59375 35 35 35 C 37.40625 35 39.09375 34.023438 40 33.328125 C 40.90625 34.023438 42.59375 35 45 35 C 45.359375 35.003906 45.695313 34.816406 45.878906 34.503906 C 46.058594 34.191406 46.058594 33.808594 45.878906 33.496094 C 45.695313 33.183594 45.359375 32.996094 45 33 C 44.535156 33 44.125 32.949219 43.746094 32.882813 L 40.746094 21.332031 C 40.910156 21.085938 41 20.796875 41 20.5 C 41 19.9375 40.683594 19.425781 40.1875 19.167969 L 39.816406 17.75 L 37.878906 18.25 L 38.25 19.671875 C 38.085938 19.917969 38 20.207031 38 20.5 C 38 21.058594 38.3125 21.570313 38.808594 21.828125 L 39.308594 23.753906 C 38.613281 23.90625 37.847656 24 37 24 L 34 24 L 34 14 C 35.644531 14 37 12.644531 37 11 L 37 10.765625 L 34.617188 6 Z M 14.617188 8 L 33.382813 8 L 34.949219 11.128906 C 34.878906 11.621094 34.511719 12 34 12 C 33.433594 12 33 11.566406 33 11 L 31 11 C 31 11.566406 30.566406 12 30 12 C 29.433594 12 29 11.566406 29 11 L 27 11 C 27 11.566406 26.566406 12 26 12 C 25.433594 12 25 11.566406 25 11 L 23 11 C 23 11.566406 22.566406 12 22 12 C 21.433594 12 21 11.566406 21 11 L 19 11 C 19 11.566406 18.566406 12 18 12 C 17.433594 12 17 11.566406 17 11 L 15 11 C 15 11.566406 14.566406 12 14 12 C 13.488281 12 13.121094 11.621094 13.050781 11.128906 Z M 16 13.167969 C 16.535156 13.660156 17.222656 14 18 14 C 18.777344 14 19.464844 13.660156 20 13.167969 C 20.535156 13.660156 21.222656 14 22 14 C 22.777344 14 23.464844 13.660156 24 13.167969 C 24.535156 13.660156 25.222656 14 26 14 C 26.777344 14 27.464844 13.660156 28 13.167969 C 28.535156 13.660156 29.222656 14 30 14 C 30.777344 14 31.464844 13.660156 32 13.167969 L 32 24.660156 C 31.605469 25.183594 30.09375 27 28 27 L 16 27 Z M 48 19 L 45.375 19.003906 L 45.097656 19.5625 C 45.050781 19.664063 44.398438 20.949219 42.886719 22.109375 L 43.421875 24.171875 C 44.480469 23.480469 45.277344 22.703125 45.832031 22.03125 C 45.640625 23.488281 45.207031 25.554688 44.324219 27.644531 L 45.09375 30.605469 C 47.957031 25.753906 48 20.28125 48 20 Z M 4.4375 23.058594 C 5.734375 24.582031 7.585938 26 10 26 L 14 26 L 14 29 L 28 29 C 30.761719 29 32.742188 26.933594 33.5 26 L 37 26 C 38.03125 26 38.960938 25.878906 39.808594 25.6875 L 41.4375 31.953125 C 41.144531 31.742188 40.953125 31.554688 40.875 31.46875 C 40.648438 31.09375 40.207031 30.90625 39.78125 31.011719 C 39.757813 31.015625 39.730469 31.023438 39.707031 31.03125 C 39.484375 31.097656 39.292969 31.238281 39.160156 31.433594 C 38.988281 31.632813 37.722656 33 35 33 C 32.378906 33 31.121094 31.742188 30.875 31.46875 C 30.632813 31.066406 30.148438 30.886719 29.707031 31.03125 C 29.484375 31.097656 29.292969 31.238281 29.160156 31.433594 C 28.988281 31.632813 27.722656 33 25 33 C 22.378906 33 21.121094 31.742188 20.875 31.46875 C 20.691406 31.164063 20.363281 30.976563 20.007813 30.980469 C 19.90625 30.980469 19.804688 30.996094 19.707031 31.03125 C 19.484375 31.097656 19.292969 31.238281 19.160156 31.433594 C 18.988281 31.632813 17.722656 33 15 33 C 12.304688 33 11.042969 31.664063 10.847656 31.441406 C 10.675781 31.179688 10.390625 31.011719 10.078125 30.992188 C 10.046875 30.988281 10.015625 30.988281 9.980469 30.988281 C 9.652344 30.992188 9.34375 31.15625 9.164063 31.433594 C 9.136719 31.460938 9.035156 31.554688 8.960938 31.625 C 8.011719 30.679688 5.480469 27.8125 4.4375 23.058594 Z M 20.007813 35.980469 C 19.90625 35.980469 19.804688 35.996094 19.707031 36.03125 C 19.484375 36.097656 19.292969 36.238281 19.160156 36.433594 C 18.988281 36.632813 17.722656 38 15 38 C 12.304688 38 11.042969 36.664063 10.847656 36.441406 C 10.675781 36.179688 10.390625 36.011719 10.078125 35.992188 C 10.046875 35.988281 10.015625 35.988281 9.980469 35.988281 C 9.652344 35.992188 9.34375 36.15625 9.164063 36.433594 C 8.988281 36.632813 7.722656 38 5 38 C 4.640625 37.996094 4.304688 38.183594 4.121094 38.496094 C 3.941406 38.808594 3.941406 39.191406 4.121094 39.503906 C 4.304688 39.816406 4.640625 40.003906 5 40 C 7.40625 40 9.09375 39.023438 10 38.328125 C 10.90625 39.023438 12.59375 40 15 40 C 17.40625 40 19.09375 39.023438 20 38.328125 C 20.90625 39.023438 22.59375 40 25 40 C 27.40625 40 29.09375 39.023438 30 38.328125 C 30.90625 39.023438 32.59375 40 35 40 C 37.40625 40 39.09375 39.023438 40 38.328125 C 40.90625 39.023438 42.59375 40 45 40 C 45.359375 40.003906 45.695313 39.816406 45.878906 39.503906 C 46.058594 39.191406 46.058594 38.808594 45.878906 38.496094 C 45.695313 38.183594 45.359375 37.996094 45 38 C 42.378906 38 41.121094 36.742188 40.875 36.46875 C 40.648438 36.09375 40.207031 35.90625 39.78125 36.011719 C 39.757813 36.015625 39.730469 36.023438 39.707031 36.03125 C 39.484375 36.097656 39.292969 36.238281 39.160156 36.433594 C 38.988281 36.632813 37.722656 38 35 38 C 32.378906 38 31.121094 36.742188 30.875 36.46875 C 30.632813 36.066406 30.148438 35.886719 29.707031 36.03125 C 29.484375 36.097656 29.292969 36.238281 29.160156 36.433594 C 28.988281 36.632813 27.722656 38 25 38 C 22.378906 38 21.121094 36.742188 20.875 36.46875 C 20.691406 36.164063 20.363281 35.976563 20.007813 35.980469 Z M 20.007813 40.980469 C 19.90625 40.980469 19.804688 40.996094 19.707031 41.03125 C 19.484375 41.097656 19.292969 41.238281 19.160156 41.433594 C 18.988281 41.632813 17.722656 43 15 43 C 12.304688 43 11.042969 41.664063 10.847656 41.441406 C 10.675781 41.179688 10.390625 41.011719 10.078125 40.992188 C 10.046875 40.988281 10.015625 40.988281 9.980469 40.988281 C 9.652344 40.992188 9.34375 41.15625 9.164063 41.433594 C 8.988281 41.632813 7.722656 43 5 43 C 4.640625 42.996094 4.304688 43.183594 4.121094 43.496094 C 3.941406 43.808594 3.941406 44.191406 4.121094 44.503906 C 4.304688 44.816406 4.640625 45.003906 5 45 C 7.40625 45 9.09375 44.023438 10 43.328125 C 10.90625 44.023438 12.59375 45 15 45 C 17.40625 45 19.09375 44.023438 20 43.328125 C 20.90625 44.023438 22.59375 45 25 45 C 27.40625 45 29.09375 44.023438 30 43.328125 C 30.90625 44.023438 32.59375 45 35 45 C 37.40625 45 39.09375 44.023438 40 43.328125 C 40.90625 44.023438 42.59375 45 45 45 C 45.359375 45.003906 45.695313 44.816406 45.878906 44.503906 C 46.058594 44.191406 46.058594 43.808594 45.878906 43.496094 C 45.695313 43.183594 45.359375 42.996094 45 43 C 42.378906 43 41.121094 41.742188 40.875 41.46875 C 40.648438 41.09375 40.207031 40.90625 39.78125 41.011719 C 39.757813 41.015625 39.730469 41.023438 39.707031 41.03125 C 39.484375 41.097656 39.292969 41.238281 39.160156 41.433594 C 38.988281 41.632813 37.722656 43 35 43 C 32.378906 43 31.121094 41.742188 30.875 41.46875 C 30.632813 41.066406 30.148438 40.886719 29.707031 41.03125 C 29.484375 41.097656 29.292969 41.238281 29.160156 41.433594 C 28.988281 41.632813 27.722656 43 25 43 C 22.378906 43 21.121094 41.742188 20.875 41.46875 C 20.691406 41.164063 20.363281 40.976563 20.007813 40.980469 Z "/>
</g>
</svg>