<svg xmlns="http://www.w3.org/2000/svg" xmlns:xlink="http://www.w3.org/1999/xlink" viewBox="0 0 50 50" version="1.1" width="500" height="500">
<g id="surface1">
<path style=" " d="M 23.875 1.03125 C 23.789063 1.050781 23.703125 1.082031 23.625 1.125 C 23.625 1.125 22.226563 1.6875 20.6875 2.46875 C 19.917969 2.859375 19.109375 3.316406 18.40625 3.78125 C 17.703125 4.246094 17.097656 4.6875 16.6875 5.34375 C 15.410156 7.378906 16.023438 10.097656 18.0625 11.375 C 20.101563 12.652344 22.585938 11.847656 24 10.09375 C 24.757813 9.15625 24.886719 7.945313 24.96875 6.5625 C 25.050781 5.179688 25 3.585938 25 2.03125 C 25 1.761719 24.890625 1.5 24.695313 1.3125 C 24.5 1.125 24.238281 1.023438 23.96875 1.03125 C 23.9375 1.03125 23.90625 1.03125 23.875 1.03125 Z M 48.875 1.03125 C 48.789063 1.050781 48.703125 1.082031 48.625 1.125 C 48.625 1.125 47.226563 1.6875 45.6875 2.46875 C 44.917969 2.859375 44.109375 3.316406 43.40625 3.78125 C 42.703125 4.246094 42.097656 4.6875 41.6875 5.34375 C 40.410156 7.378906 41.023438 10.097656 43.0625 11.375 C 45.101563 12.652344 47.585938 11.847656 49 10.09375 C 49.757813 9.15625 49.886719 7.945313 49.96875 6.5625 C 50.050781 5.179688 50 3.585938 50 2.03125 C 50 1.761719 49.890625 1.5 49.695313 1.3125 C 49.5 1.125 49.238281 1.023438 48.96875 1.03125 C 48.9375 1.03125 48.90625 1.03125 48.875 1.03125 Z M 23 3.59375 C 23.003906 4.582031 23.015625 5.628906 22.96875 6.4375 C 22.894531 7.691406 22.625 8.617188 22.46875 8.8125 C 21.550781 9.953125 20.234375 10.351563 19.125 9.65625 C 18.003906 8.953125 17.671875 7.527344 18.375 6.40625 C 18.457031 6.273438 18.898438 5.835938 19.5 5.4375 C 20.101563 5.039063 20.867188 4.617188 21.59375 4.25 C 22.328125 3.875 22.480469 3.824219 23 3.59375 Z M 48 3.59375 C 48.003906 4.582031 48.015625 5.628906 47.96875 6.4375 C 47.894531 7.691406 47.625 8.617188 47.46875 8.8125 C 46.550781 9.953125 45.234375 10.351563 44.125 9.65625 C 43.003906 8.953125 42.671875 7.527344 43.375 6.40625 C 43.457031 6.273438 43.898438 5.835938 44.5 5.4375 C 45.101563 5.039063 45.867188 4.617188 46.59375 4.25 C 47.328125 3.875 47.480469 3.824219 48 3.59375 Z M 34.875 11.03125 C 34.789063 11.050781 34.703125 11.082031 34.625 11.125 C 34.625 11.125 33.226563 11.6875 31.6875 12.46875 C 30.917969 12.859375 30.109375 13.316406 29.40625 13.78125 C 28.703125 14.246094 28.097656 14.6875 27.6875 15.34375 C 26.410156 17.378906 27.023438 20.097656 29.0625 21.375 C 31.101563 22.652344 33.585938 21.847656 35 20.09375 C 35.757813 19.15625 35.886719 17.945313 35.96875 16.5625 C 36.050781 15.179688 36 13.585938 36 12.03125 C 36 11.761719 35.890625 11.5 35.695313 11.3125 C 35.5 11.125 35.238281 11.023438 34.96875 11.03125 C 34.9375 11.03125 34.90625 11.03125 34.875 11.03125 Z M 34 13.59375 C 34.003906 14.582031 34.015625 15.628906 33.96875 16.4375 C 33.894531 17.691406 33.625 18.617188 33.46875 18.8125 C 32.550781 19.953125 31.234375 20.351563 30.125 19.65625 C 29.003906 18.953125 28.671875 17.527344 29.375 16.40625 C 29.457031 16.273438 29.898438 15.835938 30.5 15.4375 C 31.101563 15.039063 31.867188 14.617188 32.59375 14.25 C 33.328125 13.875 33.480469 13.824219 34 13.59375 Z M 11 27 C 8.097656 27.007813 4.589844 27.941406 0.625 29.5625 C 0.285156 29.703125 0.046875 30.015625 0.0078125 30.382813 C -0.03125 30.746094 0.132813 31.105469 0.4375 31.3125 C 0.921875 31.636719 1.460938 32.5625 1.9375 33.875 C 2.414063 35.1875 2.855469 36.816406 3.5 38.4375 C 4.144531 40.058594 4.992188 41.6875 6.34375 42.9375 C 7.695313 44.1875 9.582031 45 12 45 C 14.824219 45 17.019531 43.992188 18.40625 42.59375 C 18.972656 42.023438 19.375 41.378906 19.625 40.71875 C 21.207031 43.183594 22 46.023438 22 49 C 21.996094 49.359375 22.183594 49.695313 22.496094 49.878906 C 22.808594 50.058594 23.191406 50.058594 23.503906 49.878906 C 23.816406 49.695313 24.003906 49.359375 24 49 C 24 48.199219 23.949219 47.40625 23.84375 46.625 C 23.910156 44.371094 24.546875 42.164063 25.78125 40.375 C 25.863281 40.84375 26.011719 41.320313 26.25 41.78125 C 27.09375 43.414063 28.882813 44.8125 31.53125 44.8125 C 34.882813 44.8125 37.234375 43.039063 38.90625 41.21875 C 39.742188 40.308594 40.445313 39.382813 41.03125 38.625 C 41.617188 37.867188 42.140625 37.308594 42.4375 37.125 C 42.636719 37 42.773438 36.792969 42.808594 36.558594 C 42.847656 36.324219 42.777344 36.085938 42.625 35.90625 C 40.527344 33.253906 37.90625 30.1875 31 30.1875 C 29.566406 30.1875 28.019531 30.636719 26.75 31.34375 C 25.480469 32.050781 24.375 33.035156 24.375 34.4375 C 24.375 35.933594 25.101563 36.953125 25.875 37.6875 C 25.84375 37.71875 25.8125 37.75 25.78125 37.78125 C 24.371094 39.152344 23.417969 40.867188 22.84375 42.71875 C 22.25 41.191406 21.414063 39.734375 20.375 38.40625 C 21.449219 37.75 22.25 36.636719 22.25 35.125 C 22.25 31.683594 18.730469 26.976563 11 27 Z M 11 29 C 17.925781 28.976563 20.25 33.109375 20.25 35.125 C 20.25 36.234375 19.824219 36.824219 19.1875 37.0625 C 16.460938 34.234375 12.621094 32.09375 7.65625 31.09375 C 7.554688 31.066406 7.449219 31.054688 7.34375 31.0625 C 6.792969 31.035156 6.324219 31.464844 6.296875 32.015625 C 6.269531 32.566406 6.699219 33.035156 7.25 33.0625 C 12.046875 34.027344 15.628906 36.046875 18.0625 38.6875 C 18.160156 39.3125 17.878906 40.304688 17 41.1875 C 16.011719 42.183594 14.351563 43 12 43 C 10.011719 43 8.734375 42.40625 7.71875 41.46875 C 6.703125 40.53125 5.964844 39.203125 5.375 37.71875 C 4.785156 36.234375 4.332031 34.617188 3.8125 33.1875 C 3.511719 32.355469 3.164063 31.613281 2.71875 30.9375 C 5.941406 29.734375 8.839844 29.007813 11 29 Z M 31 31.8125 C 36.996094 31.8125 39.007813 33.949219 40.9375 36.375 C 40.535156 36.761719 40.144531 37.113281 39.75 37.625 C 39.144531 38.40625 38.480469 39.296875 37.71875 40.125 C 36.199219 41.78125 34.324219 43.1875 31.53125 43.1875 C 29.433594 43.1875 28.289063 42.195313 27.6875 41.03125 C 27.238281 40.160156 27.191406 39.183594 27.34375 38.59375 C 29.414063 36.808594 32.410156 35.871094 36.6875 36.6875 C 36.988281 36.785156 37.316406 36.699219 37.53125 36.46875 C 37.746094 36.242188 37.8125 35.90625 37.699219 35.613281 C 37.585938 35.320313 37.3125 35.117188 37 35.09375 C 35.757813 34.855469 34.59375 34.761719 33.5 34.78125 C 30.949219 34.832031 28.820313 35.53125 27.125 36.6875 C 26.492188 36.144531 26 35.5 26 34.4375 C 26 34.019531 26.515625 33.3125 27.53125 32.75 C 28.546875 32.1875 29.917969 31.8125 31 31.8125 Z "/>
</g>
</svg>