<svg xmlns="http://www.w3.org/2000/svg" xmlns:xlink="http://www.w3.org/1999/xlink" viewBox="0 0 50 50" version="1.1" width="500" height="500">
<g id="surface1">
<path style=" " d="M 21.03125 0 C 17.609375 0 15 2.585938 15 6 C 15 7.886719 15.769531 9.484375 16.8125 10.78125 C 17.855469 12.078125 19.167969 13.140625 20.40625 14.15625 C 20.746094 14.433594 21.070313 14.71875 21.40625 15 L 10.28125 15 C 7.386719 15 4.953125 16.871094 4.0625 19.46875 C 4.027344 19.558594 4.007813 19.652344 4 19.75 C 4 19.769531 4 19.792969 4 19.8125 C 4 19.832031 4 19.855469 4 19.875 C 4 19.894531 4 19.917969 4 19.9375 C 4 19.949219 4 19.957031 4 19.96875 C 4 19.980469 4 19.988281 4 20 L 4 31.4375 C 2.160156 32.128906 0.703125 33.597656 0.0625 35.46875 C 0.0273438 35.558594 0.0078125 35.652344 0 35.75 C 0 35.769531 0 35.792969 0 35.8125 C 0 35.832031 0 35.855469 0 35.875 C 0 35.894531 0 35.917969 0 35.9375 C 0 35.949219 0 35.957031 0 35.96875 C 0 35.980469 0 35.988281 0 36 L 0 45.3125 C 0 47.113281 0.886719 48.503906 2.15625 49.1875 C 3.425781 49.871094 4.933594 50 6.53125 50 L 43.46875 50 C 45.066406 50 46.574219 49.871094 47.84375 49.1875 C 49.113281 48.503906 50 47.113281 50 45.3125 L 50 36 C 50 35.96875 50 35.9375 50 35.90625 C 49.996094 35.84375 49.984375 35.78125 49.96875 35.71875 C 49.96875 35.707031 49.96875 35.699219 49.96875 35.6875 C 49.964844 35.613281 49.957031 35.539063 49.9375 35.46875 C 49.296875 33.597656 47.839844 32.125 46 31.4375 L 46 20 C 46.007813 19.9375 46.007813 19.875 46 19.8125 C 45.992188 19.769531 45.980469 19.726563 45.96875 19.6875 C 45.964844 19.613281 45.957031 19.539063 45.9375 19.46875 C 45.046875 16.871094 42.613281 15 39.71875 15 L 28.59375 15 C 28.921875 14.722656 29.257813 14.433594 29.59375 14.15625 C 30.828125 13.140625 32.144531 12.078125 33.1875 10.78125 C 34.230469 9.484375 35 7.886719 35 6 C 35 2.585938 32.390625 0 28.96875 0 C 27.207031 0 25.945313 0.929688 25 1.78125 C 24.058594 0.929688 22.789063 0 21.03125 0 Z M 21.03125 2 C 22.253906 2 23.574219 3.003906 24.28125 3.75 C 24.46875 3.945313 24.730469 4.054688 25 4.054688 C 25.269531 4.054688 25.53125 3.945313 25.71875 3.75 C 26.433594 3.003906 27.742188 2 28.96875 2 C 31.460938 2 33 3.519531 33 6 C 33 7.355469 32.484375 8.460938 31.625 9.53125 C 30.765625 10.601563 29.550781 11.574219 28.3125 12.59375 C 27.417969 13.328125 26.476563 14.128906 25.625 15 L 24.375 15 C 23.523438 14.125 22.585938 13.332031 21.6875 12.59375 C 20.449219 11.574219 19.234375 10.597656 18.375 9.53125 C 17.515625 8.464844 17 7.355469 17 6 C 17 3.519531 18.539063 2 21.03125 2 Z M 10.28125 17 L 23.6875 17 C 23.878906 17.058594 24.089844 17.058594 24.28125 17 L 25.6875 17 C 25.878906 17.058594 26.089844 17.058594 26.28125 17 L 39.71875 17 C 41.59375 17 43.089844 18.175781 43.8125 19.78125 C 43.742188 19.941406 43.734375 20.136719 43.125 20.625 C 42.316406 21.273438 40.820313 22 38 22 C 35.460938 22 34.242188 21.3125 33.625 20.75 C 33.007813 20.1875 32.96875 19.8125 32.96875 19.8125 C 32.863281 19.367188 32.46875 19.050781 32.011719 19.042969 C 31.554688 19.039063 31.152344 19.339844 31.03125 19.78125 C 31.03125 19.78125 31.042969 19.785156 30.9375 19.96875 C 30.832031 20.152344 30.628906 20.425781 30.25 20.71875 C 29.492188 21.308594 27.980469 22 25 22 C 22.019531 22 20.507813 21.308594 19.75 20.71875 C 19.371094 20.425781 19.167969 20.152344 19.0625 19.96875 C 18.957031 19.785156 18.96875 19.78125 18.96875 19.78125 C 18.847656 19.339844 18.445313 19.039063 17.988281 19.042969 C 17.53125 19.050781 17.136719 19.367188 17.03125 19.8125 C 17.03125 19.8125 16.964844 20.183594 16.34375 20.75 C 15.722656 21.316406 14.519531 22 12 22 C 9.273438 22 7.777344 21.28125 6.9375 20.625 C 6.316406 20.140625 6.273438 19.957031 6.1875 19.78125 C 6.910156 18.175781 8.40625 17 10.28125 17 Z M 18.0625 21.75 C 18.234375 21.933594 18.296875 22.097656 18.53125 22.28125 C 19.703125 23.191406 21.703125 24 25 24 C 28.296875 24 30.296875 23.191406 31.46875 22.28125 C 31.703125 22.097656 31.765625 21.933594 31.9375 21.75 C 32.070313 21.917969 32.101563 22.085938 32.28125 22.25 C 33.304688 23.1875 35.09375 24 38 24 C 40.878906 24 42.777344 23.277344 44 22.4375 L 44 31.03125 C 43.90625 31.027344 43.816406 31 43.71875 31 L 6.28125 31 C 6.183594 31 6.09375 31.027344 6 31.03125 L 6 22.40625 C 7.230469 23.257813 9.152344 24 12 24 C 14.886719 24 16.660156 23.183594 17.6875 22.25 C 17.875 22.082031 17.925781 21.921875 18.0625 21.75 Z M 6.28125 33 L 43.71875 33 C 45.59375 33 47.089844 34.175781 47.8125 35.78125 C 47.742188 35.941406 47.734375 36.136719 47.125 36.625 C 46.316406 37.273438 44.820313 38 42 38 C 39.460938 38 37.628906 37.300781 36.4375 36.625 C 35.246094 35.949219 34.75 35.34375 34.75 35.34375 C 34.566406 35.125 34.292969 34.996094 34.007813 34.988281 C 33.71875 34.984375 33.445313 35.101563 33.25 35.3125 C 33.25 35.3125 32.742188 35.941406 31.40625 36.625 C 30.070313 37.308594 27.980469 38 25 38 C 22.019531 38 19.929688 37.308594 18.59375 36.625 C 17.257813 35.941406 16.75 35.3125 16.75 35.3125 C 16.554688 35.101563 16.28125 34.984375 15.992188 34.988281 C 15.707031 34.996094 15.433594 35.125 15.25 35.34375 C 15.25 35.34375 13.035156 38 8 38 C 5.273438 38 3.777344 37.28125 2.9375 36.625 C 2.316406 36.140625 2.273438 35.957031 2.1875 35.78125 C 2.910156 34.175781 4.40625 33 6.28125 33 Z M 16 37.21875 C 16.351563 37.539063 16.585938 37.8125 17.6875 38.375 C 19.28125 39.191406 21.703125 40 25 40 C 28.296875 40 30.71875 39.191406 32.3125 38.375 C 33.398438 37.820313 33.609375 37.542969 33.96875 37.21875 C 34.300781 37.542969 34.492188 37.820313 35.46875 38.375 C 36.917969 39.199219 39.09375 40 42 40 C 44.878906 40 46.777344 39.277344 48 38.4375 L 48 45.3125 C 48 46.570313 47.640625 47.007813 46.90625 47.40625 C 46.171875 47.804688 44.929688 48 43.46875 48 L 6.53125 48 C 5.070313 48 3.828125 47.804688 3.09375 47.40625 C 2.359375 47.007813 2 46.570313 2 45.3125 L 2 38.40625 C 3.230469 39.257813 5.152344 40 8 40 C 12.800781 40 15.167969 38 16 37.21875 Z "/>
</g>
</svg>