<svg xmlns="http://www.w3.org/2000/svg" xmlns:xlink="http://www.w3.org/1999/xlink" viewBox="0 0 50 50" version="1.1" width="500" height="500">
<g id="surface1">
<path style=" " d="M 12 0 C 10.90625 0 10 0.90625 10 2 L 10 4 L 4 4 C 3.476563 4 2.945313 4.191406 2.570313 4.570313 C 2.191406 4.945313 2 5.476563 2 6 L 2 46 C 2 46.523438 2.191406 47.054688 2.570313 47.433594 C 2.945313 47.808594 3.476563 48 4 48 L 34.027344 48 C 35.695313 49.25 37.757813 50 40 50 C 45.515625 50 50 45.515625 50 40 C 50 37.757813 49.25 35.695313 48 34.027344 L 48 6 C 48 5.476563 47.808594 4.945313 47.433594 4.570313 C 47.054688 4.191406 46.523438 4 46 4 L 40 4 L 40 2 C 40 0.90625 39.09375 0 38 0 L 36 0 C 34.90625 0 34 0.90625 34 2 L 34 4 L 16 4 L 16 2 C 16 0.90625 15.09375 0 14 0 Z M 12 2 L 14 2 L 14 8 L 12 8 Z M 36 2 L 38 2 L 38 8 L 36 8 Z M 4 6 L 10 6 L 10 8 C 10 9.09375 10.90625 10 12 10 L 14 10 C 15.09375 10 16 9.09375 16 8 L 16 6 L 34 6 L 34 8 C 34 9.09375 34.90625 10 36 10 L 38 10 C 39.09375 10 40 9.09375 40 8 L 40 6 L 46 6 L 46 13 L 4 13 Z M 4 15 L 46 15 L 46 32.019531 C 44.328125 30.757813 42.253906 30 40 30 C 35.527344 30 31.734375 32.949219 30.457031 37.007813 L 30.234375 36.15625 L 29 31.519531 L 35 26.640625 L 27.28125 26.222656 L 24.5 19 L 21.71875 26.222656 L 14 26.640625 L 20 31.519531 L 18.011719 39 L 24.5 34.796875 L 30.132813 38.445313 C 30.054688 38.953125 30 39.46875 30 40 C 30 42.253906 30.757813 44.328125 32.019531 46 L 4 46 Z M 24.5 24.5625 L 25.414063 26.941406 L 25.878906 28.152344 L 27.171875 28.21875 L 29.71875 28.359375 L 27.734375 29.96875 L 26.734375 30.78125 L 27.066406 32.03125 L 27.722656 34.5 L 25.585938 33.113281 L 24.5 32.410156 L 23.410156 33.113281 L 21.277344 34.5 L 21.933594 32.03125 L 22.265625 30.78125 L 21.261719 29.96875 L 19.28125 28.359375 L 21.828125 28.21875 L 23.121094 28.152344 L 23.582031 26.941406 Z M 40 32 C 44.410156 32 48 35.589844 48 40 C 48 44.410156 44.410156 48 40 48 C 35.589844 48 32 44.410156 32 40 C 32 35.589844 35.589844 32 40 32 Z M 44.300781 35.402344 L 38.902344 41.699219 L 35.597656 39.199219 L 34.402344 40.800781 L 39.097656 44.402344 L 45.800781 36.699219 Z "/>
</g>
</svg>